           1
 -0.656534289481657318624498957089968046      
 -0.598915995119487743354319987291178315      
 -0.555761765889600900561039450145314816      
 -0.530614793686876711175156839968782773      
 -0.619749004411891441745623976992787680      
 -0.972870481170909783309459187912196177      
  -1.27806569613505152460550735952629240      
  -1.34530771299296127524751954155612044      
  -1.33141359036842549509406841324273287      
  -1.30259497302977510005428037950700467      
  -1.27052918885398968515664155462962514      
  -1.23735331175952172660729045929873431      
  -1.20396409080707852173975915594661011      
  -1.17111512823674307882756379429425081      
  -1.13953964375852346432652222503370529      
  -1.10994982885605013621935456149214886      
  -1.08299181297982586684189161872358645      
  -1.05914629247756345105479730148617710      
  -1.03857330436560942636624772917943317      
  -1.02094018292013011297212962799377283      
  -1.00532522631971878584584531195257279      
 -0.990304261775128403575379734226436209      
 -0.974247179324382655934604489853409158      
 -0.955708244505384456063501652356095268      
 -0.933720025895740711095603260588234514      
 -0.907876452642375642962125609091041470      
 -0.878233068210595182184121742821937740      
 -0.845130773782640386054961984158037586      
 -0.809033939296292983836092544341015773      
 -0.770421103283271236229528412054269012      
 -0.729727401633703423138004197405649384      
 -0.687325465545008720057103633788607632      
 -0.643550059965741967763954263142240606      
 -0.598915995119487743354319987291178315      
 -0.555761765889600900561039450145314816      
 -0.526394439103678220977366360793890138      
