           1
 -0.958136386070787976339062386937462811      
 -0.937370086141362494176218443484937642      
 -0.922257154528166378490713024512008483      
 -0.906568352473606639275872012058352977      
 -0.890291091326094898097383419682517913      
 -0.873444374396375530998627265478207041      
 -0.856088008754410338535429211200100803      
 -0.838356114126417905136848382818937198      
 -0.820556271874096763184406532460169324      
 -0.803441230594817638773662137382721465      
 -0.788917220781725896281303321754523786      
 -0.781729165404798230232445710079604129      
 -0.792504265849158517688659339953465177      
 -0.838593244723898424405250706193219298      
 -0.928517980366084756628849065024262475      
  -1.03342209093575200029899202767165092      
  -1.10769314170128957566346669567918642      
  -1.13959689911773979096867650014174612      
  -1.14401818784585778417372433047665112      
  -1.13565565265848317390799991334630991      
  -1.12230961573810906043506277765137757      
  -1.10732921230383742423353068116663139      
  -1.09203961918500368840297550723388022      
  -1.07694398693703102481627804448593199      
  -1.06221756876445635110152018658364540      
  -1.04789591093779906466436384773756952      
  -1.03394392441856284484506774122010753      
  -1.02028206869725703392323236029773597      
  -1.00679929241558569289404961926656828      
 -0.993363639215721197930960398280724427      
 -0.979833703064333967782440299413578008      
 -0.966070770336470775171675088420545015      
 -0.951950154385695136880315408843133724      
 -0.937370086141362494176218443484937642      
 -0.922257154528166378490713024512008483      
 -0.913149030319879620258129170145352800      
