           1
 -0.963498164265335770362196388489348312      
 -0.915094553342344181387982930520863706      
 -0.868859174559470956716163075573925490      
 -0.812882293637412997530715194799666718      
 -0.748863337285152128377787148401245697      
 -0.678439470205583351668976514300531118      
 -0.602935443180994323200825466330409955      
 -0.523282552888131741339213630313216039      
 -0.439992421463126036467811953080380702      
 -0.353073974917145324339859312233082126      
 -0.261674295213203093147168789441156156      
 -0.162329899285540623059006854509764737      
 -0.385686886226456064170155224554267935      
  -1.53955798698679070076410556659446220      
  -1.47782132776794856047865332694806570      
  -1.44997436524597792987900793091714669      
  -1.43825312511030480714730940303597177      
  -1.42244724523227686938417051872636472      
  -1.39805553862179144027715415603129552      
  -1.36316117641381989862256010379015979      
  -1.31940091144154722850299056575943867      
  -1.26975317148971851049359262244999109      
  -1.21753387057100760831622637579463539      
  -1.16600396170311950932761270323661832      
  -1.11827912499882491811832461291875287      
  -1.07721314582311100198331392832215171      
  -1.04500949507780478649360134802773122      
  -1.02250086003249506794186450864847450      
  -1.00839519496469083061024253855269068      
 -0.999101888220805343089486371576803132      
 -0.989531288918147992014501872450457599      
 -0.974549924000625239749622111875257223      
 -0.950342095174630935399993340285021992      
 -0.915094553342344181387982930520863706      
 -0.868859174559470956716163075573925490      
 -0.835832674471620170628453404674092510      
