\relax 
\babel@aux{english}{}
\@writefile{lof}{\contentsline {figure}{\numberline {1}{\ignorespaces Each method performed with initial condition 7.38\relax }}{1}}
\@writefile{lof}{\contentsline {figure}{\numberline {2}{\ignorespaces Each method performed with initial condition 7.39\relax }}{2}}
\@writefile{lof}{\contentsline {figure}{\numberline {3}{\ignorespaces Each method performed with initial condition 7.40\relax }}{3}}
\@writefile{lof}{\contentsline {figure}{\numberline {4}{\ignorespaces Each method performed with initial condition 7.41\relax }}{4}}
\@writefile{lof}{\contentsline {figure}{\numberline {5}{\ignorespaces Each method performed with initial condition 7.42\relax }}{5}}
\@writefile{lof}{\contentsline {figure}{\numberline {6}{\ignorespaces Each method performed with initial condition 7.43\relax }}{6}}
\@writefile{lof}{\contentsline {figure}{\numberline {7}{\ignorespaces Each method performed with initial condition 7.44\relax }}{7}}
\@writefile{lof}{\contentsline {figure}{\numberline {8}{\ignorespaces Each method performed with initial condition 7.45\relax }}{8}}
\@writefile{lof}{\contentsline {figure}{\numberline {9}{\ignorespaces Each method performed with initial condition 7.46\relax }}{9}}
\@writefile{lof}{\contentsline {figure}{\numberline {10}{\ignorespaces Each method performed with initial condition 7.47\relax }}{10}}
\@writefile{lof}{\contentsline {figure}{\numberline {11}{\ignorespaces Each method performed with initial condition 7.48(a) perturbed as stated in the project assignment\relax }}{11}}
\@writefile{lof}{\contentsline {figure}{\numberline {12}{\ignorespaces Initial condition yielding rareifaction to the left and a left-moving shock to the right\relax }}{12}}
\@writefile{lof}{\contentsline {figure}{\numberline {13}{\ignorespaces Initial condition yielding rareifaction to the left and a left-moving shock to the right\relax }}{13}}
